Вариант exercise_3: неверное значение при выполнении тестаВариант exercise_3: нет подходящего класса
Вариант exercise_3: нет подходящего класса
Вариант exercise_3: нет подходящего класса
Вариант exercise_3: нет подходящего класса
Вариант exercise_3: нет подходящего класса
Вариант exercise_3: нет подходящего класса
Вариант exercise_3: нет подходящего класса
Вариант exercise_3: нет подходящего класса
Вариант exercise_3: нет подходящего класса
Вариант exercise_3: нет подходящего класса
Вариант exercise_3: нет подходящего класса
Вариант exercise_3: нет подходящего класса
Вариант exercise_3: нет подходящего класса
Вариант exercise_3: нет подходящего класса
Вариант exercise_3: нет подходящего класса
