Вариант exercise_3: нет подходящего класса
Вариант exercise_2: не выполнен
Вариант exercise_2: не выполнен
Вариант exercise_3: нет подходящего класса
Вариант exercise_2: не выполнен
Вариант exercise_3: нет подходящего класса
Вариант exercise_2: не выполнен
Вариант exercise_3: нет подходящего класса
Вариант exercise_2: не выполнен
Вариант exercise_3: нет подходящего класса
Вариант exercise_2: не выполнен
Вариант exercise_3: нет подходящего класса
Вариант exercise_3: нет подходящего класса
Вариант exercise_2: не выполнен
Вариант exercise_3: нет подходящего класса
Вариант exercise_2: не выполнен
Вариант exercise_3: нет подходящего класса
Вариант exercise_2: не выполнен
Вариант exercise_3: нет подходящего класса
Вариант exercise_2: не выполнен
Вариант exercise_3: нет подходящего класса
Вариант exercise_2: не выполнен
Вариант exercise_3: нет подходящего класса
Вариант exercise_2: не выполнен
Вариант exercise_2: не выполнен
Вариант exercise_3: нет подходящего класса
Вариант exercise_3: нет подходящего класса
Вариант exercise_2: не выполнен
Вариант exercise_3: нет подходящего класса
Вариант exercise_2: не выполнен
